{
  "name": "Bancos",
  "options": {
    "idInjection": false,
    "postgresql": {
      "schema": "public",
      "table": "Bancos"
    },
    "relations": {
      "bancosIdlocalidadFkeyrel": {
        "model": "Localidades",
        "type": "belongsTo",
        "foreignKey": "idlocalidad"
      }
    },
    "plural": "Bancos"
  },
  "properties": {
    "idbanco": {
      "type": "Number",
      "required": true,
      "length": null,
      "precision": 32,
      "scale": 0,
      "id": 1,
      "postgresql": {
        "columnName": "idBanco",
        "dataType": "integer",
        "dataLength": null,
        "dataPrecision": 32,
        "dataScale": 0,
        "nullable": "NO"
      }
    },
    "snombanco": {
      "type": "String",
      "required": false,
      "length": 50,
      "precision": null,
      "scale": null,
      "postgresql": {
        "columnName": "sNomBanco",
        "dataType": "character varying",
        "dataLength": 50,
        "dataPrecision": null,
        "dataScale": null,
        "nullable": "YES"
      }
    },
    "sdireccion": {
      "type": "String",
      "required": false,
      "length": 50,
      "precision": null,
      "scale": null,
      "postgresql": {
        "columnName": "sDireccion",
        "dataType": "character varying",
        "dataLength": 50,
        "dataPrecision": null,
        "dataScale": null,
        "nullable": "YES"
      }
    },
    "stelefono": {
      "type": "String",
      "required": false,
      "length": 30,
      "precision": null,
      "scale": null,
      "postgresql": {
        "columnName": "sTelefono",
        "dataType": "character varying",
        "dataLength": 30,
        "dataPrecision": null,
        "dataScale": null,
        "nullable": "YES"
      }
    },
    "idlocalidad": {
      "type": "Number",
      "required": false,
      "length": null,
      "precision": 32,
      "scale": 0,
      "postgresql": {
        "columnName": "idLocalidad",
        "dataType": "integer",
        "dataLength": null,
        "dataPrecision": 32,
        "dataScale": 0,
        "nullable": "YES"
      }
    },
    "scodbanco": {
      "type": "String",
      "required": false,
      "length": 5,
      "precision": null,
      "scale": null,
      "postgresql": {
        "columnName": "sCodBanco",
        "dataType": "character varying",
        "dataLength": 5,
        "dataPrecision": null,
        "dataScale": null,
        "nullable": "YES"
      }
    }
  }
}