{
  "name": "Condventa",
  "options": {
    "idInjection": false,
    "postgresql": {
      "schema": "public",
      "table": "CondVenta"
    },
    "relations": {
      "condventaIdtipodocFkeyrel": {
        "model": "Tiposdoc",
        "type": "belongsTo",
        "foreignKey": "idtipodoc"
      }
    },
    "plural": "CondVenta"
  },
  "properties": {
    "idcondventa": {
      "type": "String",
      "required": true,
      "length": 4,
      "precision": null,
      "scale": null,
      "id": 1,
      "postgresql": {
        "columnName": "idCondVenta",
        "dataType": "character varying",
        "dataLength": 4,
        "dataPrecision": null,
        "dataScale": null,
        "nullable": "NO"
      }
    },
    "sdescrip": {
      "type": "String",
      "required": false,
      "length": 50,
      "precision": null,
      "scale": null,
      "postgresql": {
        "columnName": "sDescrip",
        "dataType": "character varying",
        "dataLength": 50,
        "dataPrecision": null,
        "dataScale": null,
        "nullable": "YES"
      }
    },
    "bcontado": {
      "type": "Number",
      "required": false,
      "length": null,
      "precision": 16,
      "scale": 0,
      "postgresql": {
        "columnName": "bContado",
        "dataType": "smallint",
        "dataLength": null,
        "dataPrecision": 16,
        "dataScale": 0,
        "nullable": "YES"
      }
    },
    "icantcuotas": {
      "type": "Number",
      "required": false,
      "length": null,
      "precision": 16,
      "scale": 0,
      "postgresql": {
        "columnName": "iCantCuotas",
        "dataType": "smallint",
        "dataLength": null,
        "dataPrecision": 16,
        "dataScale": 0,
        "nullable": "YES"
      }
    },
    "rcalccuota": {
      "type": "Number",
      "required": false,
      "length": null,
      "precision": 19,
      "scale": 4,
      "postgresql": {
        "columnName": "rCalcCuota",
        "dataType": "numeric",
        "dataLength": null,
        "dataPrecision": 19,
        "dataScale": 4,
        "nullable": "YES"
      }
    },
    "idiasplazo": {
      "type": "Number",
      "required": false,
      "length": null,
      "precision": 16,
      "scale": 0,
      "postgresql": {
        "columnName": "iDiasPlazo",
        "dataType": "smallint",
        "dataLength": null,
        "dataPrecision": 16,
        "dataScale": 0,
        "nullable": "YES"
      }
    },
    "idtipodoc": {
      "type": "String",
      "required": false,
      "length": 3,
      "precision": null,
      "scale": null,
      "postgresql": {
        "columnName": "idTipoDoc",
        "dataType": "character varying",
        "dataLength": 3,
        "dataPrecision": null,
        "dataScale": null,
        "nullable": "YES"
      }
    },
    "iplazocuota1": {
      "type": "Number",
      "required": false,
      "length": null,
      "precision": 16,
      "scale": 0,
      "postgresql": {
        "columnName": "iPlazoCuota1",
        "dataType": "smallint",
        "dataLength": null,
        "dataPrecision": 16,
        "dataScale": 0,
        "nullable": "YES"
      }
    },
    "bestarjeta": {
      "type": "Number",
      "required": false,
      "length": null,
      "precision": 16,
      "scale": 0,
      "postgresql": {
        "columnName": "bEsTarjeta",
        "dataType": "smallint",
        "dataLength": null,
        "dataPrecision": 16,
        "dataScale": 0,
        "nullable": "YES"
      }
    },
    "besrestrictiva": {
      "type": "Number",
      "required": false,
      "length": null,
      "precision": 16,
      "scale": 0,
      "postgresql": {
        "columnName": "bEsRestrictiva",
        "dataType": "smallint",
        "dataLength": null,
        "dataPrecision": 16,
        "dataScale": 0,
        "nullable": "YES"
      }
    },
    "rcomision": {
      "type": "Number",
      "required": true,
      "length": null,
      "precision": 19,
      "scale": 4,
      "postgresql": {
        "columnName": "rComision",
        "dataType": "numeric",
        "dataLength": null,
        "dataPrecision": 19,
        "dataScale": 4,
        "nullable": "NO"
      }
    },
    "bactivo": {
      "type": "Number",
      "required": true,
      "length": null,
      "precision": 16,
      "scale": 0,
      "postgresql": {
        "columnName": "bActivo",
        "dataType": "smallint",
        "dataLength": null,
        "dataPrecision": 16,
        "dataScale": 0,
        "nullable": "NO"
      }
    }
  }
}