{
  "name": "Impxlista",
  "options": {
    "idInjection": false,
    "postgresql": {
      "schema": "public",
      "table": "ImpXLista"
    },
    "relations": {
      "impxlistaIdimpuestoFkeyrel": {
        "model": "Impuestos",
        "type": "belongsTo",
        "foreignKey": "idimpuesto"
      },
      "impxlistaIdlistaFkeyrel": {
        "model": "Listas",
        "type": "belongsTo",
        "foreignKey": "idlista"
      }
    },
    "plural": "ImpXLista"
  },
  "properties": {
    "idimpuesto": {
      "type": "Number",
      "required": true,
      "length": null,
      "precision": 16,
      "scale": 0,
      "id": 1,
      "postgresql": {
        "columnName": "idImpuesto",
        "dataType": "smallint",
        "dataLength": null,
        "dataPrecision": 16,
        "dataScale": 0,
        "nullable": "NO"
      }
    },
    "idlista": {
      "type": "Number",
      "required": true,
      "length": null,
      "precision": 16,
      "scale": 0,
      "id": 2,
      "postgresql": {
        "columnName": "idLista",
        "dataType": "smallint",
        "dataLength": null,
        "dataPrecision": 16,
        "dataScale": 0,
        "nullable": "NO"
      }
    },
    "rvalorimpuesto": {
      "type": "Number",
      "required": false,
      "length": null,
      "precision": 19,
      "scale": 4,
      "postgresql": {
        "columnName": "rValorImpuesto",
        "dataType": "numeric",
        "dataLength": null,
        "dataPrecision": 19,
        "dataScale": 4,
        "nullable": "YES"
      }
    },
    "fvigencia": {
      "type": "String",
      "required": true,
      "length": null,
      "precision": null,
      "scale": null,
      "id": 3,
      "postgresql": {
        "columnName": "fVigencia",
        "dataType": "timestamp without time zone",
        "dataLength": null,
        "dataPrecision": null,
        "dataScale": null,
        "nullable": "NO"
      }
    },
    "usuarioCreacion": {
      "type": "String",
      "required": false,
      "length": 10,
      "precision": null,
      "scale": null,
      "postgresql": {
        "columnName": "usuario_creacion",
        "dataType": "character varying",
        "dataLength": 10,
        "dataPrecision": null,
        "dataScale": null,
        "nullable": "YES"
      }
    },
    "fechaCreacion": {
      "type": "String",
      "required": false,
      "length": null,
      "precision": null,
      "scale": null,
      "postgresql": {
        "columnName": "fecha_creacion",
        "dataType": "timestamp without time zone",
        "dataLength": null,
        "dataPrecision": null,
        "dataScale": null,
        "nullable": "YES"
      }
    }
  }
}