{
  "name": "Motivosnocompra",
  "options": {
    "idInjection": false,
    "postgresql": {
      "schema": "public",
      "table": "MotivosNoCompra"
    },
    "relations": {},
    "plural": "MotivosNoCompra"
  },
  "properties": {
    "idmotivonocompra": {
      "type": "Number",
      "required": true,
      "length": null,
      "precision": 32,
      "scale": 0,
      "id": 1,
      "postgresql": {
        "columnName": "idMotivoNoCompra",
        "dataType": "integer",
        "dataLength": null,
        "dataPrecision": 32,
        "dataScale": 0,
        "nullable": "NO"
      }
    },
    "sdescripcion": {
      "type": "String",
      "required": false,
      "length": 100,
      "precision": null,
      "scale": null,
      "postgresql": {
        "columnName": "sDescripcion",
        "dataType": "character varying",
        "dataLength": 100,
        "dataPrecision": null,
        "dataScale": null,
        "nullable": "YES"
      }
    }
  }
}