{
  "name": "Numeraciondoc",
  "options": {
    "idInjection": false,
    "postgresql": {
      "schema": "public",
      "table": "NumeracionDoc"
    },
    "relations": {
      "numeraciondocIdtipodocFkeyrel": {
        "model": "Tiposdoc",
        "type": "belongsTo",
        "foreignKey": "idtipodoc"
      }
    },
    "plural": "NumeracionDoc"
  },
  "properties": {
    "idtipodoc": {
      "type": "String",
      "required": true,
      "length": 3,
      "precision": null,
      "scale": null,
      "id": 1,
      "postgresql": {
        "columnName": "idTipoDoc",
        "dataType": "character varying",
        "dataLength": 3,
        "dataPrecision": null,
        "dataScale": null,
        "nullable": "NO"
      }
    },
    "idpv": {
      "type": "Number",
      "required": true,
      "length": null,
      "precision": 16,
      "scale": 0,
      "id": 2,
      "postgresql": {
        "columnName": "idPV",
        "dataType": "smallint",
        "dataLength": null,
        "dataPrecision": 16,
        "dataScale": 0,
        "nullable": "NO"
      }
    },
    "iultimonumero": {
      "type": "Number",
      "required": false,
      "length": null,
      "precision": 32,
      "scale": 0,
      "postgresql": {
        "columnName": "iUltimoNumero",
        "dataType": "integer",
        "dataLength": null,
        "dataPrecision": 32,
        "dataScale": 0,
        "nullable": "YES"
      }
    },
    "imaxlineas": {
      "type": "Number",
      "required": false,
      "length": null,
      "precision": 16,
      "scale": 0,
      "postgresql": {
        "columnName": "iMaxLineas",
        "dataType": "smallint",
        "dataLength": null,
        "dataPrecision": 16,
        "dataScale": 0,
        "nullable": "YES"
      }
    },
    "simpresora": {
      "type": "String",
      "required": false,
      "length": 50,
      "precision": null,
      "scale": null,
      "postgresql": {
        "columnName": "sImpresora",
        "dataType": "character varying",
        "dataLength": 50,
        "dataPrecision": null,
        "dataScale": null,
        "nullable": "YES"
      }
    },
    "idgruponumeracion": {
      "type": "Number",
      "required": false,
      "length": null,
      "precision": 16,
      "scale": 0,
      "postgresql": {
        "columnName": "idGrupoNumeracion",
        "dataType": "smallint",
        "dataLength": null,
        "dataPrecision": 16,
        "dataScale": 0,
        "nullable": "YES"
      }
    }
  }
}