{
  "name": "Provincias",
  "options": {
    "idInjection": false,
    "postgresql": {
      "schema": "public",
      "table": "Provincias"
    },
    "relations": {
      "provinciasIdpaisFkeyrel": {
        "model": "Paises",
        "type": "belongsTo",
        "foreignKey": "idpais"
      }
    },
    "plural": "Provincias"
  },
  "properties": {
    "idprovincia": {
      "type": "Number",
      "required": true,
      "length": null,
      "precision": 16,
      "scale": 0,
      "id": 1,
      "postgresql": {
        "columnName": "idProvincia",
        "dataType": "smallint",
        "dataLength": null,
        "dataPrecision": 16,
        "dataScale": 0,
        "nullable": "NO"
      }
    },
    "snombre": {
      "type": "String",
      "required": false,
      "length": 50,
      "precision": null,
      "scale": null,
      "postgresql": {
        "columnName": "sNombre",
        "dataType": "character varying",
        "dataLength": 50,
        "dataPrecision": null,
        "dataScale": null,
        "nullable": "YES"
      }
    },
    "idpais": {
      "type": "Number",
      "required": false,
      "length": null,
      "precision": 16,
      "scale": 0,
      "postgresql": {
        "columnName": "idPais",
        "dataType": "smallint",
        "dataLength": null,
        "dataPrecision": 16,
        "dataScale": 0,
        "nullable": "YES"
      }
    },
    "sletra": {
      "type": "String",
      "required": true,
      "length": 1,
      "precision": null,
      "scale": null,
      "postgresql": {
        "columnName": "sLetra",
        "dataType": "character varying",
        "dataLength": 1,
        "dataPrecision": null,
        "dataScale": null,
        "nullable": "NO"
      }
    },
    "scodprovincia": {
      "type": "String",
      "required": false,
      "length": 10,
      "precision": null,
      "scale": null,
      "postgresql": {
        "columnName": "scodprovincia",
        "dataType": "character varying",
        "dataLength": 10,
        "dataPrecision": null,
        "dataScale": null,
        "nullable": "YES"
      }
    }
  }
}