{
  "name": "Tiposlote",
  "options": {
    "idInjection": false,
    "postgresql": {
      "schema": "public",
      "table": "TiposLote"
    },
    "relations": {},
    "plural": "TiposLote"
  },
  "properties": {
    "idtipolote": {
      "type": "String",
      "required": true,
      "length": 3,
      "precision": null,
      "scale": null,
      "id": 1,
      "postgresql": {
        "columnName": "idTipoLote",
        "dataType": "character varying",
        "dataLength": 3,
        "dataPrecision": null,
        "dataScale": null,
        "nullable": "NO"
      }
    },
    "sdescrip": {
      "type": "String",
      "required": false,
      "length": 50,
      "precision": null,
      "scale": null,
      "postgresql": {
        "columnName": "sDescrip",
        "dataType": "character varying",
        "dataLength": 50,
        "dataPrecision": null,
        "dataScale": null,
        "nullable": "YES"
      }
    }
  }
}