{
  "name": "Unidades",
  "options": {
    "idInjection": false,
    "postgresql": {
      "schema": "public",
      "table": "Unidades"
    },
    "relations": {
      "unidadesIdproductoFkeyrel": {
        "model": "Productos",
        "type": "belongsTo",
        "foreignKey": "idproducto"
      }
    },
    "plural": "Unidades"
  },
  "properties": {
    "sshortdescrip": {
      "type": "String",
      "required": false,
      "length": 3,
      "precision": null,
      "scale": null,
      "postgresql": {
        "columnName": "sShortDescrip",
        "dataType": "character varying",
        "dataLength": 3,
        "dataPrecision": null,
        "dataScale": null,
        "nullable": "YES"
      }
    },
    "idunidad": {
      "type": "Number",
      "required": true,
      "length": null,
      "precision": 16,
      "scale": 0,
      "id": 2,
      "postgresql": {
        "columnName": "idUnidad",
        "dataType": "smallint",
        "dataLength": null,
        "dataPrecision": 16,
        "dataScale": 0,
        "nullable": "NO"
      }
    },
    "idproducto": {
      "type": "Number",
      "required": true,
      "length": null,
      "precision": 16,
      "scale": 0,
      "id": 1,
      "postgresql": {
        "columnName": "idProducto",
        "dataType": "smallint",
        "dataLength": null,
        "dataPrecision": 16,
        "dataScale": 0,
        "nullable": "NO"
      }
    },
    "sdescrip": {
      "type": "String",
      "required": false,
      "length": 30,
      "precision": null,
      "scale": null,
      "postgresql": {
        "columnName": "sDescrip",
        "dataType": "character varying",
        "dataLength": 30,
        "dataPrecision": null,
        "dataScale": null,
        "nullable": "YES"
      }
    },
    "icantidad": {
      "type": "Number",
      "required": false,
      "length": null,
      "precision": 24,
      "scale": null,
      "postgresql": {
        "columnName": "iCantidad",
        "dataType": "real",
        "dataLength": null,
        "dataPrecision": 24,
        "dataScale": null,
        "nullable": "YES"
      }
    },
    "idsubunidad": {
      "type": "Number",
      "required": false,
      "length": null,
      "precision": 16,
      "scale": 0,
      "postgresql": {
        "columnName": "idSubUnidad",
        "dataType": "smallint",
        "dataLength": null,
        "dataPrecision": 16,
        "dataScale": 0,
        "nullable": "YES"
      }
    },
    "icantsubunid": {
      "type": "Number",
      "required": false,
      "length": null,
      "precision": 24,
      "scale": null,
      "postgresql": {
        "columnName": "iCantSubUnid",
        "dataType": "real",
        "dataLength": null,
        "dataPrecision": 24,
        "dataScale": null,
        "nullable": "YES"
      }
    },
    "rmedida1": {
      "type": "Number",
      "required": true,
      "length": null,
      "precision": 24,
      "scale": null,
      "postgresql": {
        "columnName": "rMedida1",
        "dataType": "real",
        "dataLength": null,
        "dataPrecision": 24,
        "dataScale": null,
        "nullable": "NO"
      }
    }
  }
}