{"Condpago": {"dataSource": "vps", "public": true},
"Descxcliente": {"dataSource": "vps", "public": true},
"Descxlista": {"dataSource": "vps", "public": true},
"Descuentos": {"dataSource": "vps", "public": true},
"Empresas": {"dataSource": "vps", "public": true},
"Descxproducto": {"dataSource": "vps", "public": true},
"Descxvendedor": {"dataSource": "vps", "public": true},
"Doccuenta": {"dataSource": "vps", "public": true},
"Encuestas": {"dataSource": "vps", "public": true},
"Gruponumeracion": {"dataSource": "vps", "public": true},
"Motivosnocompra": {"dataSource": "vps", "public": true},
"Lineas": {"dataSource": "vps", "public": true},
"Grupofamilia": {"dataSource": "vps", "public": true},
"Monedas": {"dataSource": "vps", "public": true},
"Paises": {"dataSource": "vps", "public": true},
"Listas": {"dataSource": "vps", "public": true},
"Depositos": {"dataSource": "vps", "public": true},
"Sucursales": {"dataSource": "vps", "public": true},
"Tiposlote": {"dataSource": "vps", "public": true},
"Productos": {"dataSource": "vps", "public": true},
"Localidades": {"dataSource": "vps", "public": true},
"Rutas": {"dataSource": "vps", "public": true},
"Tiposdoc": {"dataSource": "vps", "public": true},
"Canales": {"dataSource": "vps", "public": true},
"Pedidos": {"dataSource": "vps", "public": true},
"Impuestos": {"dataSource": "vps", "public": true},
"Categoriaclientes": {"dataSource": "vps", "public": true},
"Condventa": {"dataSource": "vps", "public": true},
"Cotizaciones": {"dataSource": "vps", "public": true},
"Provincias": {"dataSource": "vps", "public": true},
"Numeraciondoc": {"dataSource": "vps", "public": true},
"Familias": {"dataSource": "vps", "public": true},
"Subcanales": {"dataSource": "vps", "public": true},
"Bancos": {"dataSource": "vps", "public": true},
"Unidades": {"dataSource": "vps", "public": true},
"Stock": {"dataSource": "vps", "public": true},
"Zonas": {"dataSource": "vps", "public": true},
"Vendedores": {"dataSource": "vps", "public": true},
"Barrios": {"dataSource": "vps", "public": true},
"Itemslista": {"dataSource": "vps", "public": true},
"Impxlista": {"dataSource": "vps", "public": true},
"Impxproducto": {"dataSource": "vps", "public": true},
"Clientes": {"dataSource": "vps", "public": true},
"Impxcliente": {"dataSource": "vps", "public": true},
"Pedidositems": {"dataSource": "vps", "public": true}
}